<svg xmlns="http://www.w3.org/2000/svg" width="110" height="110.283" viewBox="0 0 110 110.283">
  <g id="lock" transform="translate(-0.657)">
    <path id="Path_642" data-name="Path 642" d="M356.76,276.885a16.083,16.083,0,0,0-16.083,16.083v4.6a2.3,2.3,0,1,0,4.6,0v-4.6a11.488,11.488,0,0,1,22.975,0v4.6a2.3,2.3,0,0,0,4.6,0v-4.6A16.083,16.083,0,0,0,356.76,276.885Z" transform="translate(-266.781 -217.245)" fill="#546e7a"/>
    <path id="Path_643" data-name="Path 643" d="M321.642,362.219H358.4a2.3,2.3,0,0,1,2.3,2.3v27.571a2.3,2.3,0,0,1-2.3,2.3H321.642a2.3,2.3,0,0,1-2.3-2.3V364.517A2.3,2.3,0,0,1,321.642,362.219Z" transform="translate(-250.043 -284.199)" fill="#00d9d9"/>
    <path id="Path_644" data-name="Path 644" d="M64.706,107.888V80.318a6.893,6.893,0,0,1,4.793-6.53,20.591,20.591,0,0,1,1.126-4.834,26.613,26.613,0,0,1-.919-3.676,19.106,19.106,0,0,0,6.773-12.434,3.763,3.763,0,0,1,.556-2.367A2.3,2.3,0,0,0,78.61,49.1a34.178,34.178,0,0,0,2.463-10.04A2.293,2.293,0,0,0,81,38.5a5.914,5.914,0,0,0-2.229-3.345V22.975A23.959,23.959,0,0,0,55.8,0,23.959,23.959,0,0,0,32.825,22.976V35.157A5.915,5.915,0,0,0,30.6,38.5a2.293,2.293,0,0,0-.069.556A34.18,34.18,0,0,0,32.99,49.1a1.953,1.953,0,0,0,1.379,1.319c.253.129.735.8.735,2.422A19.106,19.106,0,0,0,41.9,65.288c-.459,3.01-2.725,10.946-7.518,12.949L14.008,85.01A16.014,16.014,0,0,0,3.485,96.392L.728,107.42a2.3,2.3,0,0,0,2.229,2.863h62.2A6.817,6.817,0,0,1,64.706,107.888Z" fill="#455a64"/>
    <path id="Path_645" data-name="Path 645" d="M403.2,409.481a4.6,4.6,0,0,0-9.19,0,4.536,4.536,0,0,0,2.3,3.887v3.005a2.3,2.3,0,0,0,4.6,0v-3.005A4.536,4.536,0,0,0,403.2,409.481Z" transform="translate(-308.627 -317.675)" fill="#fafafa"/>
  </g>
</svg>
